%YAML 1.1
%TAG !u! tag:unity3d.com,2011:
--- !u!114 &11400000
MonoBehaviour:
  m_ObjectHideFlags: 0
  m_CorrespondingSourceObject: {fileID: 0}
  m_PrefabInstance: {fileID: 0}
  m_PrefabAsset: {fileID: 0}
  m_GameObject: {fileID: 0}
  m_Enabled: 1
  m_EditorHideFlags: 0
  m_Script: {fileID: 11500000, guid: 4bb395df401b3244db6e7e9a0b2c8706, type: 3}
  m_Name: Antibiotics
  m_EditorClassIdentifier: 
  _name: Antibiotik
  _energy: 4
  _energyPercentage: 1.5
  _description: Karena bronkitis lebih banyak disebabkan oleh infeksi virus, maka
    pemberian obat antibiotik jarang dilakukan, karena antibiotik tidak efektif untuk
    membasmi virus. Namun masih terdapat kondisi dimana antibiotik harus digunakan
    untuk meredakan atau menghentikan infeksi bakteri pada paru-paru, seperti menggunakan
    antibiotik jenis Makrolid.
  artWork: {fileID: 21300000, guid: 18569589064ddaa4ca2ca9d8be8af6a1, type: 3}
