%YAML 1.1
%TAG !u! tag:unity3d.com,2011:
--- !u!114 &11400000
MonoBehaviour:
  m_ObjectHideFlags: 0
  m_CorrespondingSourceObject: {fileID: 0}
  m_PrefabInstance: {fileID: 0}
  m_PrefabAsset: {fileID: 0}
  m_GameObject: {fileID: 0}
  m_Enabled: 1
  m_EditorHideFlags: 0
  m_Script: {fileID: 11500000, guid: 4bb395df401b3244db6e7e9a0b2c8706, type: 3}
  m_Name: HoneyLemonMix
  m_EditorClassIdentifier: 
  _name: Campuran Leman Madu
  _energy: 4
  _energyPercentage: 1.5
  _description: Madu yang telah lama dijadikan bahan racikan obat sejak zaman dahulu,
    nyatanya memiliki kandungan sifat antibakteri di dalamnya. Jika dikombinasikan
    dengan perasan lemon segar, yang mana bertindak sebagai pembasmi zat-zat asing
    di dalam tubuh, ia akan ampuh menjadi obat bronkitis alami.
  artWork: {fileID: 21300000, guid: a2b89882e64f58df6bf5b0d9de17decf, type: 3}
