%YAML 1.1
%TAG !u! tag:unity3d.com,2011:
--- !u!114 &11400000
MonoBehaviour:
  m_ObjectHideFlags: 0
  m_CorrespondingSourceObject: {fileID: 0}
  m_PrefabInstance: {fileID: 0}
  m_PrefabAsset: {fileID: 0}
  m_GameObject: {fileID: 0}
  m_Enabled: 1
  m_EditorHideFlags: 0
  m_Script: {fileID: 11500000, guid: 4bb395df401b3244db6e7e9a0b2c8706, type: 3}
  m_Name: MineralWater
  m_EditorClassIdentifier: 
  _name: Minum Air Putih
  _energy: 3
  _energyPercentage: 1
  _description: Minum air mineral yang banyak dapat menjadi obat alami bronkitis
    akut. Tubuh yang terhidrasi akan membantu menipiskan lendir pada saluran bronkial.
    Biasanya, gejala demam juga menyertai penderita bronkitis. Nah, minum air yang
    banyak bisa menggantikan cairan yang hilang dalam tubuh selama masa peradangan
    tersebut. Hindari minum minuman beralkohol dan mengandung kafein selama batuk
    dan demam berlangsung.
  artWork: {fileID: 21300000, guid: a2b89882e64f58df6bf5b0d9de17decf, type: 3}
