%YAML 1.1
%TAG !u! tag:unity3d.com,2011:
--- !u!114 &11400000
MonoBehaviour:
  m_ObjectHideFlags: 0
  m_CorrespondingSourceObject: {fileID: 0}
  m_PrefabInstance: {fileID: 0}
  m_PrefabAsset: {fileID: 0}
  m_GameObject: {fileID: 0}
  m_Enabled: 1
  m_EditorHideFlags: 0
  m_Script: {fileID: 11500000, guid: 4bb395df401b3244db6e7e9a0b2c8706, type: 3}
  m_Name: LidahBuaya
  m_EditorClassIdentifier: 
  _name: Konsumsi Lidah Buaya
  _energy: 4
  _energyPercentage: 1.5
  _description: Walau lidah buaya kini lebih populer sebagai bahan kosmetik atau
    perawatan kulit, namun dalam sebuah penelitian terhadap tikus, lidah buaya memiliki
    efek penyembuhan tukak lambung yang sebanding dengan obat anti-tukak lambung
    omeprazole. Ini sebabkan karena lidah buaya secara signifikan dapat mengurangi
    jumlah asam lambung
  artWork: {fileID: 21300000, guid: 9c362b5ec84a01bdf95b6c25ff755892, type: 3}
  _onCooldown: 0
  _cooldown: 10
