%YAML 1.1
%TAG !u! tag:unity3d.com,2011:
--- !u!114 &11400000
MonoBehaviour:
  m_ObjectHideFlags: 0
  m_CorrespondingSourceObject: {fileID: 0}
  m_PrefabInstance: {fileID: 0}
  m_PrefabAsset: {fileID: 0}
  m_GameObject: {fileID: 0}
  m_Enabled: 1
  m_EditorHideFlags: 0
  m_Script: {fileID: 11500000, guid: 2a061969c9200bc7c8dc0c70792a54b5, type: 3}
  m_Name: Bronkitis
  m_EditorClassIdentifier: 
  _name: Bronkitis
  _defaultHealth: 60
  _health: 60
  _maxHealth: 100
  artWork: {fileID: 21300000, guid: 9ba50f7bc5ad178afa57ba6dfe3a086c, type: 3}
