%YAML 1.1
%TAG !u! tag:unity3d.com,2011:
--- !u!114 &11400000
MonoBehaviour:
  m_ObjectHideFlags: 0
  m_CorrespondingSourceObject: {fileID: 0}
  m_PrefabInstance: {fileID: 0}
  m_PrefabAsset: {fileID: 0}
  m_GameObject: {fileID: 0}
  m_Enabled: 1
  m_EditorHideFlags: 0
  m_Script: {fileID: 11500000, guid: 4bb395df401b3244db6e7e9a0b2c8706, type: 3}
  m_Name: Appendectomy
  m_EditorClassIdentifier: 
  _name: "Open Appendectomy\t"
  _energy: 15
  _energyPercentage: 15
  _description: Apendektomi terbuka dilakukan dengan membuat irisan pada bagian kanan
    bawah perut sepanjang 2-4 inci. Usus buntu diangkat melalui irisan ini kemudian
    irisan ditutup kembali. Apendektomi terbuka harus dilakukan jika usus buntu pasien
    sudah pecah dan infeksinya menyebar. Apendektomi terbuka juga merupakan metode
    yang harus dipilih bagi pasien yang pernah mengalami pembedahan di bagian perut.
  artWork: {fileID: 21300000, guid: 2c8dcbb340c1735a287e5b02f1365afc, type: 3}
  _onCooldown: 0
  _cooldown: 10
  _defaultCooldown: 10
