%YAML 1.1
%TAG !u! tag:unity3d.com,2011:
--- !u!114 &11400000
MonoBehaviour:
  m_ObjectHideFlags: 0
  m_CorrespondingSourceObject: {fileID: 0}
  m_PrefabInstance: {fileID: 0}
  m_PrefabAsset: {fileID: 0}
  m_GameObject: {fileID: 0}
  m_Enabled: 1
  m_EditorHideFlags: 0
  m_Script: {fileID: 11500000, guid: 4bb395df401b3244db6e7e9a0b2c8706, type: 3}
  m_Name: DaunMint
  m_EditorClassIdentifier: 
  _name: Teh Daun Mint
  _energy: 4
  _energyPercentage: 1.5
  _description: Daun mint dapat dijadikan sebagai obat herbal untuk meredakan mual
    dan kembung karena infeksi usus buntu. Sebuah penelitian kecil tahun 2014 terbitan
    Journal of Perianesthesia Nursing, baik daun segar dan minyak esensial mint dapat
    membantu mengatasi gangguan sistem pencernaan serta sindrom iritasi usus.
  artWork: {fileID: 21300000, guid: b75196e5a428f6785b7d1071905561f4, type: 3}
  _onCooldown: 0
  _cooldown: 10
  _defaultCooldown: 10
