%YAML 1.1
%TAG !u! tag:unity3d.com,2011:
--- !u!114 &11400000
MonoBehaviour:
  m_ObjectHideFlags: 0
  m_CorrespondingSourceObject: {fileID: 0}
  m_PrefabInstance: {fileID: 0}
  m_PrefabAsset: {fileID: 0}
  m_GameObject: {fileID: 0}
  m_Enabled: 1
  m_EditorHideFlags: 0
  m_Script: {fileID: 11500000, guid: 4bb395df401b3244db6e7e9a0b2c8706, type: 3}
  m_Name: Laparoscopic
  m_EditorClassIdentifier: 
  _name: "Laparoscopic Appendectomy\t"
  _energy: 17
  _energyPercentage: 20
  _description: Operasi usus buntu (apendiktomi) dengan laparoskopi adalah prosedur
    pembedahan untuk mengangkat usus buntu atau apendiks yang mengalami infeksi dengan
    menggunakan metode laparoskopi. Apendiktomi dengan laparoskopi merupakan metode
    alternatif dari operasi terbuka usus buntu. Operasi usus buntu dengan laparoskopi
    dilakukan menggunakan laparoskopi, yaitu alat berbentuk selang tipis dan panjang,
    serta dilengkapi dengan kamera dan cahaya di bagian ujungnya.
  artWork: {fileID: 21300000, guid: 2c8dcbb340c1735a287e5b02f1365afc, type: 3}
  _onCooldown: 0
  _cooldown: 10
  _defaultCooldown: 10
