%YAML 1.1
%TAG !u! tag:unity3d.com,2011:
--- !u!114 &11400000
MonoBehaviour:
  m_ObjectHideFlags: 0
  m_CorrespondingSourceObject: {fileID: 0}
  m_PrefabInstance: {fileID: 0}
  m_PrefabAsset: {fileID: 0}
  m_GameObject: {fileID: 0}
  m_Enabled: 1
  m_EditorHideFlags: 0
  m_Script: {fileID: 11500000, guid: 4bb395df401b3244db6e7e9a0b2c8706, type: 3}
  m_Name: MineralWater
  m_EditorClassIdentifier: 
  _name: Perbanyak Minum Air Putih
  _energy: 3
  _energyPercentage: 1
  _description: Memperbanyak mengkonsumsi air putih juga dapat membantu pasien meningkatkan
    kondisi tubuh pasca operasi. Asupan air putih mampu melancarkan pencernaan. Hal
    ini sangat Anda perlukan, terlebih saat mengalami peradangan usus buntu, pasien
    juga mengalami sembelit dan kesulitan mengeluarkan kotoran di dalam tubuh.
  artWork: {fileID: 21300000, guid: 30792c48d71c20dc986b8fcb12840c14, type: 3}
  _onCooldown: 0
  _cooldown: 10
  _defaultCooldown: 10
