%YAML 1.1
%TAG !u! tag:unity3d.com,2011:
--- !u!114 &11400000
MonoBehaviour:
  m_ObjectHideFlags: 0
  m_CorrespondingSourceObject: {fileID: 0}
  m_PrefabInstance: {fileID: 0}
  m_PrefabAsset: {fileID: 0}
  m_GameObject: {fileID: 0}
  m_Enabled: 1
  m_EditorHideFlags: 0
  m_Script: {fileID: 11500000, guid: 4bb395df401b3244db6e7e9a0b2c8706, type: 3}
  m_Name: Antibiotik
  m_EditorClassIdentifier: 
  _name: Antibiotik
  _energy: 3
  _energyPercentage: 1
  _description: Antibiotik digunakan untuk meredakan infeksi pada paru-paru jika
    hal tersebut terjadi karena kerja jantung kanan yang terkena Cor Pulmonale akan
    mengakibatkan gangguan dan hal itu juga akan berdampak pada paru-paru.
  artWork: {fileID: 21300000, guid: 416a98006dce33c138d0efa8aaa36db6, type: 3}
  _onCooldown: 0
  _cooldown: 10
  _defaultCooldown: 10
