%YAML 1.1
%TAG !u! tag:unity3d.com,2011:
--- !u!114 &11400000
MonoBehaviour:
  m_ObjectHideFlags: 0
  m_CorrespondingSourceObject: {fileID: 0}
  m_PrefabInstance: {fileID: 0}
  m_PrefabAsset: {fileID: 0}
  m_GameObject: {fileID: 0}
  m_Enabled: 1
  m_EditorHideFlags: 0
  m_Script: {fileID: 11500000, guid: 4bb395df401b3244db6e7e9a0b2c8706, type: 3}
  m_Name: Balloon
  m_EditorClassIdentifier: 
  _name: Operasi Balloon pulmonary angioplasty
  _energy: 15
  _energyPercentage: 15
  _description: Operasi ini dilakukan dengan menggunakan balon kecil yang diarahkan
    ke dalam arteri dan dipompa selama beberapa detik. Hal ini untuk mendorong penyumbatan
    dan mengembalikan aliran darah ke paru-paru. Dampak baiknya bagi pengidap gangguan
    ini adalah turunnya tekanan darah pada arteri paru-paru, meningkatkan pernapasan,
    dan mampu berolahraga.
  artWork: {fileID: 0}
  _onCooldown: 0
  _cooldown: 10
  _defaultCooldown: 10
