%YAML 1.1
%TAG !u! tag:unity3d.com,2011:
--- !u!114 &11400000
MonoBehaviour:
  m_ObjectHideFlags: 0
  m_CorrespondingSourceObject: {fileID: 0}
  m_PrefabInstance: {fileID: 0}
  m_PrefabAsset: {fileID: 0}
  m_GameObject: {fileID: 0}
  m_Enabled: 1
  m_EditorHideFlags: 0
  m_Script: {fileID: 11500000, guid: 4bb395df401b3244db6e7e9a0b2c8706, type: 3}
  m_Name: Kunyit
  m_EditorClassIdentifier: 
  _name: Pemberian Kunyit
  _energy: 4
  _energyPercentage: 1.5
  _description: Manfaat utama kurkumin di dalam kunyit adalah meningkatkan fungsi
    endotelium yang merupakan lapisan pembuluh darah Anda. Endotelium merupakan penyebab
    utama penyakit jantung karena ketidakmampuannya untuk mengatur tekanan darah,
    pembekuan darah, dan berbagai faktor lainnya. Kurkumin dapat meningkatkan kesehatan
    jantung dan kunyit membantu meningkatkan sirkulasi darah dan mencegah pembekuan
    darah
  artWork: {fileID: 21300000, guid: cf20f050561c0eaa8adf05715c4887ec, type: 3}
  _onCooldown: 0
  _cooldown: 10
  _defaultCooldown: 10
