%YAML 1.1
%TAG !u! tag:unity3d.com,2011:
--- !u!114 &11400000
MonoBehaviour:
  m_ObjectHideFlags: 0
  m_CorrespondingSourceObject: {fileID: 0}
  m_PrefabInstance: {fileID: 0}
  m_PrefabAsset: {fileID: 0}
  m_GameObject: {fileID: 0}
  m_Enabled: 1
  m_EditorHideFlags: 0
  m_Script: {fileID: 11500000, guid: 4bb395df401b3244db6e7e9a0b2c8706, type: 3}
  m_Name: Manggis
  m_EditorClassIdentifier: 
  _name: Memakan atau meminum buah manggis
  _energy: 3
  _energyPercentage: 1
  _description: Kulit manggis mengandung sejumlah mineral, seperti mangan, tembaga,
    kalium, dan magnesium. Kalium adalah komponen penting dari sel dan cairan tubuh
    yang berperan dalam mengontrol detak jantung dan tekanan darah.
  artWork: {fileID: 21300000, guid: ab702135bbb5d9545bc8a69ed42e3e6c, type: 3}
  _onCooldown: 0
  _cooldown: 10
  _defaultCooldown: 10
