%YAML 1.1
%TAG !u! tag:unity3d.com,2011:
--- !u!114 &11400000
MonoBehaviour:
  m_ObjectHideFlags: 0
  m_CorrespondingSourceObject: {fileID: 0}
  m_PrefabInstance: {fileID: 0}
  m_PrefabAsset: {fileID: 0}
  m_GameObject: {fileID: 0}
  m_Enabled: 1
  m_EditorHideFlags: 0
  m_Script: {fileID: 11500000, guid: 4bb395df401b3244db6e7e9a0b2c8706, type: 3}
  m_Name: TerapiPembedahan
  m_EditorClassIdentifier: 
  _name: Terapi Pembedahan
  _energy: 17
  _energyPercentage: 10
  _description: Terapi pembedahan menjadi salah satu opsi apabila obat-obatan tidak
    lagi berfungsi secara optimal dalam mengurangi tanda dan gejala yang dialami
    oleh pengidap.
  artWork: {fileID: 21300000, guid: c33750fdf68ff7535aa071aae9b93872, type: 3}
  _onCooldown: 0
  _cooldown: 20
  _defaultCooldown: 20
